{"data":[{"name":"83","id":127748,"published_at":"2026-04-27T09:08:33.000000Z","team":{"id":1,"name":"Olympus "},"read_by_auth":false},{"name":"82","id":127513,"published_at":"2026-04-20T12:26:34.000000Z","team":{"id":1,"name":"Olympus "},"read_by_auth":false},{"name":"81","id":127355,"published_at":"2026-04-16T04:29:49.000000Z","team":{"id":1,"name":"Olympus "},"read_by_auth":false},{"name":"80","id":127031,"published_at":"2026-04-08T03:49:26.000000Z","team":{"id":1,"name":"Olympus "},"read_by_auth":false},{"name":"79","id":127017,"published_at":"2026-04-07T23:23:12.000000Z","team":{"id":1,"name":"Olympus "},"read_by_auth":false},{"name":"74.1","id":125313,"published_at":"2026-03-01T22:22:29.000000Z","team":{"id":1,"name":"Olympus "},"read_by_auth":false},{"name":"66.5","id":122121,"published_at":"2025-12-17T16:21:19.000000Z","team":{"id":1,"name":"Olympus "},"read_by_auth":false}],"links":{"first":"https:\/\/dashboard.olympusbiblioteca.com\/api\/series\/sangre-maldita-20260429-130413230\/chapters?page=1","last":"https:\/\/dashboard.olympusbiblioteca.com\/api\/series\/sangre-maldita-20260429-130413230\/chapters?page=3","prev":null,"next":"https:\/\/dashboard.olympusbiblioteca.com\/api\/series\/sangre-maldita-20260429-130413230\/chapters?page=2"},"meta":{"current_page":1,"from":1,"last_page":3,"path":"https:\/\/dashboard.olympusbiblioteca.com\/api\/series\/sangre-maldita-20260429-130413230\/chapters","per_page":40,"to":40,"total":86}}
